<?xml version="1.0" encoding="iso-8859-1"?>
<!-- Generator: Adobe Illustrator 18.1.1, SVG Export Plug-In . SVG Version: 6.00 Build 0)  -->
<svg xmlns="http://www.w3.org/2000/svg" xmlns:xlink="http://www.w3.org/1999/xlink" version="1.1" id="Capa_1" x="0px" y="0px" viewBox="0 0 488.491 488.491" style="enable-background:new 0 0 488.491 488.491;" xml:space="preserve" width="512px" height="512px">
<g>
	<g>
		<path d="M218.07,187.911l-6.096,7.43c-1.301,1.593-31.417,39.318-18.948,101.282h-7.519V218.8    c0-6.73-5.462-12.193-12.193-12.193c-6.73,0-12.193,5.462-12.193,12.193v77.823h-13.941v-64.703    c0-6.73-5.462-12.193-12.193-12.193s-12.193,5.462-12.193,12.193v64.703h-16.444v-38.042c0-6.73-5.462-12.193-12.193-12.193    s-12.193,5.462-12.193,12.193v38.042h-0.382c-2.341-5.186-5.471-10.088-9.462-14.453l-47.577-51.974    C4.662,208.477-4.751,213.776,2.598,242.3c7.251,28.133,14.591,59.891,14.591,73.133c0,13.42-7.535,46.504-14.883,75.547    c-7.218,28.556,3.016,34.53,23.719,13.591l44.61-45.138c4.926-4.983,8.673-10.746,11.323-16.907v32.921    c0,6.73,5.462,12.193,12.193,12.193s12.193-5.462,12.193-12.193v-38.172h16.444v64.842c0,6.73,5.462,12.193,12.193,12.193    s12.193-5.462,12.193-12.193v-64.842h13.941v81.627c0,6.73,5.462,12.193,12.193,12.193s12.193-5.462,12.193-12.193v-81.635h19.752    c1.024,2.495,1.992,4.78,2.853,6.787c4.893,11.372,4.893,11.372-1.479,21.102c-21.89,33.498-7.056,68.337,5.17,83.635l6.096,7.641    h9.779c23.922,0,52.958-0.016,83.237-4.04v-20.427v-20.435V231.204v-20.541v-20.541c-22.354-2.26-42.854-2.284-58.835-2.284    L218.07,187.911z" fill="#FFFFFF"/>
		<path d="M351.565,196.885v20.882v21.199v163.124v21.183v21.021    c52.316-14.323,103.282-45.569,133.642-113.865l3.284-7.381l-2.682-7.625C459.472,240.593,404.718,209.68,351.565,196.885z     M429.86,301.898c0,12.868-10.437,23.305-23.305,23.305c-12.868,0-23.305-10.437-23.305-23.305    c0-12.868,10.437-23.305,23.305-23.305C419.423,278.594,429.86,289.023,429.86,301.898z" fill="#FFFFFF"/>
		<path d="M185.369,140.107c-12.949,8.876,0.545,29.198,13.55,20.281    c18.062-12.388,28.491-27.247,23.524-49.503c-5.145-23.061-23.597-37.188-9.551-61.582c7.868-13.672-13.949-24.581-21.76-11.022    c-10.088,17.525-10.624,35.189-3.284,53.827C195.871,112.47,208.047,124.557,185.369,140.107z" fill="#FFFFFF"/>
		<path d="M250.397,140.107c-12.949,8.876,0.545,29.198,13.55,20.281    c18.062-12.388,28.491-27.247,23.524-49.503c-5.145-23.061-23.597-37.188-9.551-61.582c7.868-13.672-13.949-24.581-21.76-11.022    c-10.088,17.525-10.624,35.189-3.284,53.827C260.899,112.47,273.076,124.557,250.397,140.107z" fill="#FFFFFF"/>
		<path d="M352.508,110.877c-5.145-23.061-23.597-37.188-9.551-61.582    c7.868-13.672-13.949-24.581-21.76-11.022c-10.088,17.525-10.624,35.189-3.284,53.827c8.015,20.362,20.183,32.449-2.487,47.999    c-12.949,8.876,0.545,29.198,13.55,20.281C347.038,148,357.467,133.133,352.508,110.877z" fill="#FFFFFF"/>
	</g>
</g>
<g>
</g>
<g>
</g>
<g>
</g>
<g>
</g>
<g>
</g>
<g>
</g>
<g>
</g>
<g>
</g>
<g>
</g>
<g>
</g>
<g>
</g>
<g>
</g>
<g>
</g>
<g>
</g>
<g>
</g>
</svg>
